{
  "sntp": {
    "enable": true, 
    "server": "pool.ntp.org", 
    "retry_min": 1, 
    "retry_max": 30, 
    "update_interval": 7200
  }, 
  "update": {
    "timeout": 300, 
    "commit_timeout": 0, 
    "url": "", 
    "interval": 0, 
    "ssl_ca_file": "ca.pem", 
    "ssl_client_cert_file": "", 
    "ssl_server_name": "", 
    "enable_post": true
  }, 
  "device": {
    "id": "esp8266_??????", 
    "password": ""
  }, 
  "debug": {
    "udp_log_addr": "", 
    "mbedtls_level": 0, 
    "level": 2, 
    "filter": "", 
    "stdout_uart": 0, 
    "stderr_uart": 0, 
    "factory_reset_gpio": -1, 
    "mg_mgr_hexdump_file": "", 
    "stdout_topic": "", 
    "stderr_topic": ""
  }, 
  "sys": {
    "mount": {
      "path": "", 
      "dev_type": "", 
      "dev_opts": "", 
      "fs_type": "", 
      "fs_opts": ""
    }, 
    "wdt_timeout": 30
  }, 
  "conf_acl": "-wifi.ap.enable,*", 
  "gcp": {
    "enable": false, 
    "project": "", 
    "region": "", 
    "registry": "", 
    "device": "", 
    "key": "", 
    "token_ttl": 3600
  }, 
  "wifi": {
    "sta": {
      "enable": false, 
      "ssid": "", 
      "pass": "", 
      "user": "", 
      "anon_identity": "", 
      "cert": "", 
      "key": "", 
      "ca_cert": "", 
      "ip": "", 
      "netmask": "", 
      "gw": "", 
      "nameserver": "", 
      "dhcp_hostname": ""
    }, 
    "ap": {
      "enable": true, 
      "ssid": "ilmajaam_??????", 
      "pass": "ilmajaam", 
      "hidden": false, 
      "channel": 6, 
      "max_connections": 10, 
      "ip": "192.168.4.1", 
      "netmask": "255.255.255.0", 
      "gw": "192.168.4.1", 
      "dhcp_start": "192.168.4.2", 
      "dhcp_end": "192.168.4.100", 
      "trigger_on_gpio": -1, 
      "disable_after": 300, 
      "keep_enabled": true
    }
  }, 
  "http": {
    "enable": true, 
    "listen_addr": "80", 
    "document_root": "/", 
    "ssl_cert": "", 
    "ssl_key": "", 
    "ssl_ca_cert": "", 
    "upload_acl": "*", 
    "hidden_files": "", 
    "auth_domain": "", 
    "auth_file": ""
  }, 
  "mjs": {
    "generate_jsc": true
  }, 
  "rpc": {
    "enable": true, 
    "max_frame_size": 4096, 
    "max_queue_length": 25, 
    "default_out_channel_idle_close_timeout": 10, 
    "acl_file": "", 
    "auth_domain": "", 
    "auth_file": "", 
    "ws": {
      "enable": true, 
      "server_address": "", 
      "reconnect_interval_min": 1, 
      "reconnect_interval_max": 60, 
      "ssl_server_name": "", 
      "ssl_ca_file": "", 
      "ssl_client_cert_file": ""
    }, 
    "mqtt": {
      "enable": true, 
      "server": "zabbix.sipsu.eu:1883", 
      "topic": "", 
      "is_trusted": true
    }, 
    "uart": {
      "uart_no": 0, 
      "baud_rate": 115200, 
      "fc_type": 2, 
      "wait_for_start_frame": true
    }
  }
}